…
site_shared_OTU.df
```

    ## # A tibble: 6,649 × 4
    ##     Year n_sites   rep n_vOTU
    ##    <dbl>   <int> <int>  <int>
    ##  1  2015       1     1    161
    ##  2  2015       1     2    219
    ##  3  2015       1     3    385
    ##  4  2015       1     4    353
    ##  5  2015       1     5    224
    ##  6  2015       1     6     26
    ##  7  2015       1     7    439
    ##  8  2015       1     8    551
    ##  9  2015       1     9    361
    ## 10  2015       1    10    116
    ## # … with 6,639 more rows
…
